wor 测试机
ip: 49.234.21.254
port: 8000 - 9000
------------------------------------------------------------------------------------------------------------
docker mysql install
ip+port: 49.234.21.254:8006
user: root
pwd: wor_mysql_password
------------------------------------------------------
docker run -p 8006:3306 --name wor_mysql -v $PWD/conf:/etc/mysql/conf.d -v $PWD/logs:/logs -v $PWD/data:/var/lib/mysql -e MYSQL_ROOT_PASSWORD=wor_mysql_password -d mysql:5.6



------------------------------------------------------------------------------------------------------------
centos 安装 rabbitmq
注意:
    1. 安装软件 参考官网安装
    2. erlang 版本安装正确才能安装 rabbitmq
user: wor  (admin 权限)
pwd: wor_rabbitmq_password


------------------------------------------------------

"""
sudo nohup gunicorn image_process:wsgi:appliction -b 127.0.0.1:8000 -c /home/chenworuo/wor_SYJ/image_process/gunicorn.conf.py &

"""